
2017-12-10 12:22:58.571140 DNS Poisioning Attempt
TXID  0x1efa Request  www.oyewiki.com
Answer 1  ['52.74.136.77']
Answer 2  ['1.1.1.1']


2017-12-10 12:22:58.604138 DNS Poisioning Attempt
TXID  0x9da0 Request  www.oyewiki.com
Answer 1  ['52.74.136.77']
Answer 2  ['1.1.1.1']


2017-12-10 12:22:58.612651 DNS Poisioning Attempt
TXID  0xa322 Request  author.oyewiki.com
Answer 1  ['52.74.136.77']
Answer 2  ['2.2.2.2']


2017-12-10 12:22:58.617695 DNS Poisioning Attempt
TXID  0xce71 Request  author.oyewiki.com
Answer 1  ['52.74.136.77']
Answer 2  ['2.2.2.2']


2017-12-10 12:22:58.621278 DNS Poisioning Attempt
TXID  0xbad5 Request  www.alexa.com
Answer 1  ['34.205.175.53', '52.44.161.188']
Answer 2  ['5.5.5.5']


2017-12-10 12:22:58.625356 DNS Poisioning Attempt
TXID  0x3985 Request  e15316.ci.akamaiedge.net
Answer 1  ['104.117.94.132']
Answer 2  ['7.7.7.7']


2017-12-10 12:22:58.628157 DNS Poisioning Attempt
TXID  0x87ee Request  www.amazon.com
Answer 1  ['7.7.7.7']
Answer 2  ['104.117.94.132']


2017-12-10 12:22:58.642556 DNS Poisioning Attempt
TXID  0x314 Request  d3ag4hukkh62yn.cloudfront.net
Answer 1  ['54.192.39.112']
Answer 2  ['7.7.7.7']


2017-12-10 12:22:58.645236 DNS Poisioning Attempt
TXID  0x23f8 Request  d3ag4hukkh62yn.cloudfront.net
Answer 1  ['54.192.39.112']
Answer 2  ['7.7.7.7']


2017-12-10 12:22:58.789776 DNS Poisioning Attempt
TXID  0x1362 Request  www.amazon.com
Answer 1  ['7.7.7.7']
Answer 2  ['54.192.39.112']


2017-12-10 12:22:58.799761 DNS Poisioning Attempt
TXID  0xd707 Request  d3ag4hukkh62yn.cloudfront.net
Answer 1  ['54.192.39.112']
Answer 2  ['7.7.7.7']


2017-12-10 12:22:58.808607 DNS Poisioning Attempt
TXID  0xacd1 Request  d3ag4hukkh62yn.cloudfront.net
Answer 1  ['54.192.39.112']
Answer 2  ['7.7.7.7']


2017-12-10 12:22:58.818375 DNS Poisioning Attempt
TXID  0xf971 Request  www.amazon.com
Answer 1  ['7.7.7.7']
Answer 2  ['54.192.39.112']


2017-12-10 12:22:58.822326 DNS Poisioning Attempt
TXID  0x8297 Request  d3ag4hukkh62yn.cloudfront.net
Answer 1  ['54.192.39.112']
Answer 2  ['7.7.7.7']


2017-12-10 12:22:58.850769 DNS Poisioning Attempt
TXID  0x3098 Request  d3ag4hukkh62yn.cloudfront.net
Answer 1  ['54.192.39.112']
Answer 2  ['7.7.7.7']


2017-12-10 12:22:58.881501 DNS Poisioning Attempt
TXID  0x4f02 Request  d3ag4hukkh62yn.cloudfront.net
Answer 1  ['54.192.39.112']
Answer 2  ['7.7.7.7']


2017-12-10 12:22:58.897131 DNS Poisioning Attempt
TXID  0x1722 Request  d3ag4hukkh62yn.cloudfront.net
Answer 1  ['54.192.39.112']
Answer 2  ['7.7.7.7']


2017-12-10 12:22:58.912037 DNS Poisioning Attempt
TXID  0x7789 Request  www.amazon.com
Answer 1  ['7.7.7.7']
Answer 2  ['54.192.39.112']


2017-12-10 12:22:58.919009 DNS Poisioning Attempt
TXID  0xda61 Request  d3ag4hukkh62yn.cloudfront.net
Answer 1  ['54.192.39.112']
Answer 2  ['7.7.7.7']


2017-12-10 12:22:58.925818 DNS Poisioning Attempt
TXID  0xc6e5 Request  d3ag4hukkh62yn.cloudfront.net
Answer 1  ['54.192.39.112']
Answer 2  ['7.7.7.7']


2017-12-10 12:22:58.931801 DNS Poisioning Attempt
TXID  0x528f Request  d3ag4hukkh62yn.cloudfront.net
Answer 1  ['54.192.39.112']
Answer 2  ['7.7.7.7']

